"AddonInfo"
{
	"name"				"Business"
	"version"			"0.1"
	"up_date"			""
	"author_name"			"Lupix"
	"author_email"			"tanguyndd@gmail.com"
	"author_url"			"dishonestgamers.com"
	"info"				""
	"override"			"0"
}
